…
```r
data(ivesDataByWeek)
dat <- ivesDataByWeek %>%
  as_tibble() %>% 
  clean_names() %>% # clean column names
  select(large_phyto, small_phyto, daphnia, non_daphnia) %>% # select species
  mutate(across(where(is.double), log)) %>% # log transform all columns
  mutate(across(where(is.double), scale, scale = FALSE)) %>% # center all columns
  clean_names() # clean column names
dat
```

```
## # A tibble: 269 x 4
##    large_phyto[,1] small_phyto[,1] daphnia[,1] non_daphnia[,1]
##              <dbl>           <dbl>       <dbl>           <dbl>
##  1           0.152          -0.504      -1.22           -1.63 
##  2           0.383          -0.271      -0.906          -1.68 
##  3           0.491          -0.222      -0.582          -1.04 
##  4          -0.538          -0.820      -1.32           -0.664
##  5          -0.394          -0.649      -0.853          -1.20 
##  6          -1.44           -0.704      -1.71           -0.748
##  7          -1.42           -0.893      -0.847          -1.03 
##  8          -1.17           -0.688      -1.13           -1.18 
##  9          -0.739          -0.611      -2.22           -1.61 
## 10          NA              NA          NA              NA    
## # … with 259 more rows
```
…
```r
benthicfish %>% count(year) # 30 years
```

```
## # A tibble: 30 x 2
##     year     n
##    <dbl> <int>
##  1  1981   888
##  2  1982  1998
##  3  1983  2035
##  4  1984  1295
##  5  1985  2220
##  6  1986  2405
##  7  1987  2590
##  8  1988  2590
##  9  1989  2590
## 10  1990  1295
## # … with 20 more rows
```

```r
benthicfish %>% count(species_code) # 37 species
```

```
## # A tibble: 37 x 2
##    species_code     n
##           <dbl> <int>
##  1         1002  1687
##  2         1003  1687
##  3         1011  1687
##  4         1012  1687
##  5         1014  1687
##  6         1016  1687
##  7         1017  1687
##  8         1018  1687
##  9         1019  1687
## 10         1020  1687
## # … with 27 more rows
```
…
```r
midwaterfish %>% count(year) # 30 years
```

```
## # A tibble: 30 x 2
##     year     n
##    <dbl> <int>
##  1  1981  1770
##  2  1982  3481
##  3  1983  3245
##  4  1984  2360
##  5  1985  3540
##  6  1986  3835
##  7  1987  4130
##  8  1988  4130
##  9  1989  4130
## 10  1990  2065
## # … with 20 more rows
```

```r
midwaterfish %>% count(species_code) # 59 species
```

```
## # A tibble: 59 x 2
##    species_code     n
##           <dbl> <int>
##  1         1001  1703
##  2         1002  1703
##  3         1003  1703
##  4         1004  1703
##  5         1005  1703
##  6         1006  1703
##  7         1008  1703
##  8         1009  1703
##  9         1010  1703
## 10         1011  1703
## # … with 49 more rows
```
…
```r
benthicover %>% count(year) # 31 years
```

```
## # A tibble: 31 x 2
##     year     n
##    <dbl> <int>
##  1  1980  9240
##  2  1981 18480
##  3  1982 18480
##  4  1983 16786
##  5  1984 13706
##  6  1985 18480
##  7  1986 20020
##  8  1987 21406
##  9  1988 21560
## 10  1989 21406
## # … with 21 more rows
```

```r
benthicover %>% count(species_code) # 154 species
```

```
## # A tibble: 154 x 2
##    species_code     n
##    <chr>        <int>
##  1 0000          3569
##  2 0002          3569
##  3 0012          3569
##  4 0025          3569
##  5 0029          3569
##  6 0030          3569
##  7 0045          3569
##  8 0046          3569
##  9 0047          3569
## 10 0048          3569
## # … with 144 more rows
```

```r
benthicover %>% count(cover) # 21 levels
```

```
## # A tibble: 21 x 2
##    cover      n
##    <dbl>  <int>
##  1     0 518132
##  2     5  13063
##  3    10   5393
##  4    15   3089
##  5    20   2083
##  6    25   1555
##  7    30   1167
##  8    35    903
##  9    40    740
## 10    45    612
## # … with 11 more rows
```
…
```r
benthicdensity %>% count(year) # 31 years
```

```
## # A tibble: 31 x 2
##     year     n
##    <dbl> <int>
##  1  1980   570
##  2  1981  1140
##  3  1982  1140
##  4  1983  1007
##  5  1984   798
##  6  1985  1121
##  7  1986  1235
##  8  1987  1330
##  9  1988  1330
## 10  1989  1330
## # … with 21 more rows
```
…
```r
giantkelp_raw <- read_csv("http://www.esapubs.org/archive/ecol/E094/244/Giant%20kelp%20size%20frequency.csv")

giantkelp <- giantkelp_raw %>% 
  clean_names() %>%
  mutate(date = mdy(date),
         year = year(date))

giantkelp
```

```
## # A tibble: 14,037 x 8
##    station period date       swath kelp_id hold_fast stipe_count  year
##      <dbl>  <dbl> <date>     <chr> <chr>       <dbl>       <dbl> <dbl>
##  1       1      1 1980-08-27 10R   1_2_111        NA          NA  1980
##  2       1      1 1980-08-27 10R   1_2_113        NA          NA  1980
##  3       1      1 1980-08-27 10R   1_2_125        NA          NA  1980
##  4       1      1 1980-08-27 10R   1_2_134        NA          NA  1980
##  5       1      1 1980-08-27 10R   1_2_141        NA          NA  1980
##  6       1      1 1980-08-27 10R   1_2_150        NA          NA  1980
##  7       1      1 1980-08-27 22R   1_4_112        NA          NA  1980
##  8       1      1 1980-08-27 22R   1_4_146        NA          NA  1980
##  9       1      1 1980-08-27 32L   1_5_77         NA          NA  1980
## 10       1      1 1980-08-27 32L   1_5_96         NA          NA  1980
## # … with 14,027 more rows
```
…
